uio.c:27:6:uio_init	8	static
uio.c:51:6:uio_configure	48	static
uio.c:58:10:uio_get_readout	16	static
uio.c:76:6:uio_set_value	8	static
uio.c:200:6:HAL_GPIO_EXTI_Callback	16	static
uio.c:209:6:EXTI0_1_IRQHandler	8	static
uio.c:214:6:EXTI2_3_IRQHandler	8	static
uio.c:219:6:EXTI4_15_IRQHandler	8	static
